%YAML 1.1
%TAG !u! tag:unity3d.com,2011:
--- !u!1045 &1
EditorBuildSettings:
  m_ObjectHideFlags: 0
  serializedVersion: 2
  m_Scenes:
  - enabled: 1
    path: Assets/Game/Scene/Scene.unity
    guid: 9ec435a8e27574a41a9d9ff124df42ae
  m_configObjects: {}
